<svg xmlns="http://www.w3.org/2000/svg" width="49.489" height="54" viewBox="0 0 49.489 54">
    <g id="Gruppe_294" transform="translate(-133.319 -202.975)">
        <g id="Gruppe_291" transform="translate(134.319 243.509)">
            <path id="Pfad_153" d="M160.641,258.021H148.272a.048.048,0,0,1-.048-.048.048.048,0,0,1,.048-.048h12.369a.048.048,0,0,1,.048.048A.048.048,0,0,1,160.641,258.021Z" transform="translate(-134.846 -245.556)" fill="none" stroke="#237f49" stroke-linecap="round" stroke-linejoin="round" stroke-width="2"/>
            <path id="Pfad_154" d="M151.325,251.592H138.956a.048.048,0,1,1,0-.1h12.369a.048.048,0,1,1,0,.1Z" transform="translate(-134.493 -245.312)" fill="none" stroke="#237f49" stroke-linecap="round" stroke-linejoin="round" stroke-width="2"/>
            <path id="Pfad_155" d="M146.736,245.164H134.367a.048.048,0,0,1,0-.1h12.369a.048.048,0,0,1,0,.1Z" transform="translate(-134.319 -245.068)" fill="none" stroke="#237f49" stroke-linecap="round" stroke-linejoin="round" stroke-width="2"/>
        </g>
        <path id="Pfad_156" d="M160.276,256.314a.048.048,0,0,1-.048-.048.048.048,0,0,1,.048-.048A21.589,21.589,0,1,0,138.9,237.7a.048.048,0,0,1-.04.055.051.051,0,0,1-.055-.04,21.7,21.7,0,1,1,21.473,18.595Z" transform="translate(-0.162 -0.34)" fill="none" stroke="#237f49" stroke-linecap="round" stroke-linejoin="round" stroke-width="2"/>
        <path id="Pfad_157" d="M161.129,251.968a.048.048,0,0,1-.048-.048.048.048,0,0,1,.048-.048,16.654,16.654,0,0,0,15.384-23.023.049.049,0,0,1,.027-.064.049.049,0,0,1,.063.027,16.751,16.751,0,0,1-15.474,23.156Z" transform="translate(-1.015 -0.941)" fill="none" stroke="#237f49" stroke-linecap="round" stroke-linejoin="round" stroke-width="2"/>
        <path id="Pfad_158" d="M178.385,215.438a.048.048,0,0,0-.068,0,.048.048,0,0,0,0,.067l1.279,1.279-2.59,2.59a.046.046,0,0,0,0,.067.045.045,0,0,0,.034.014.048.048,0,0,0,.034-.014l2.59-2.59,1.279,1.279a.049.049,0,0,0,.067,0,.048.048,0,0,0,0-.068Z" transform="translate(-1.619 -0.434)" fill="none" stroke="#237f49" stroke-linecap="round" stroke-linejoin="round" stroke-width="2"/>
        <path id="Pfad_159" d="M143.786,215.506a.048.048,0,0,0,0-.067.048.048,0,0,0-.068,0l-2.624,2.624a.048.048,0,0,0,0,.068.049.049,0,0,0,.067,0l1.279-1.279,2.59,2.59a.048.048,0,0,0,.034.014.049.049,0,0,0,.035-.014.048.048,0,0,0,0-.067l-2.591-2.59Z" transform="translate(-0.256 -0.434)" fill="none" stroke="#237f49" stroke-linecap="round" stroke-linejoin="round" stroke-width="2"/>
        <g id="Gruppe_292" transform="translate(155.166 203.975)">
            <rect id="Rechteck_324" width="4.948" height="3.711" transform="translate(2.474 4.948)" fill="none" stroke="#237f49" stroke-linecap="round" stroke-linejoin="round" stroke-width="2"/>
            <rect id="Rechteck_325" width="9.896" height="4.948" rx="0.643" fill="none" stroke="#237f49" stroke-linecap="round" stroke-linejoin="round" stroke-width="2"/>
        </g>
        <g id="Gruppe_293" transform="translate(156.13 223.299)">
            <path id="Pfad_160" d="M163.2,237.54a3.093,3.093,0,1,1,0-4.374A3.093,3.093,0,0,1,163.2,237.54Z" transform="translate(-157.025 -224.372)" fill="none" stroke="#237f49" stroke-linecap="round" stroke-linejoin="round" stroke-width="2"/>
            <path id="Pfad_161" d="M163.4,232.9a.048.048,0,0,1-.034-.082l8.746-8.747a.048.048,0,0,1,.067,0,.048.048,0,0,1,0,.068l-8.746,8.746A.047.047,0,0,1,163.4,232.9Z" transform="translate(-157.231 -224.061)" fill="none" stroke="#237f49" stroke-linecap="round" stroke-linejoin="round" stroke-width="2"/>
            <path id="Pfad_162" d="M157.038,239.543a.045.045,0,0,1-.034-.014.046.046,0,0,1,0-.067l1.749-1.749a.048.048,0,0,1,.067.067l-1.749,1.749A.048.048,0,0,1,157.038,239.543Z" transform="translate(-156.99 -224.578)" fill="none" stroke="#237f49" stroke-linecap="round" stroke-linejoin="round" stroke-width="2"/>
        </g>
    </g>
</svg>