<svg xmlns="http://www.w3.org/2000/svg" width="32" height="32" viewBox="0 0 32 32">
  <g id="Gruppe_315" transform="translate(-944 -1997)">
    <circle id="Ellipse_26" cx="16" cy="16" r="16" transform="translate(944 1997)" fill="#fff"/>
    <path id="Pfad_114" d="M7207.23 7071.28l4.73 4.73 11.38-11.38" transform="translate(-6255.404 -5057.355)" fill="none" stroke="#237f49" stroke-linecap="round" stroke-linejoin="round" stroke-width="2"/>
  </g>
</svg>