<svg xmlns="http://www.w3.org/2000/svg" width="21.413" height="26.451" viewBox="0 0 21.413 26.451">
    <g id="Gruppe_287" transform="translate(-33 -29)">
        <path id="Pfad_149" d="M43.707,54.26a9.458,9.458,0,0,1,9.447,9.447.63.63,0,0,0,1.26,0,10.707,10.707,0,0,0-21.413,0,.63.63,0,0,0,1.26,0A9.458,9.458,0,0,1,43.707,54.26Z" transform="translate(0 -8.885)" fill="#666"/>
        <path id="Pfad_150" d="M46.3,41.6A6.3,6.3,0,1,0,40,35.3,6.305,6.305,0,0,0,46.3,41.6Zm0-11.336A5.038,5.038,0,1,1,41.26,35.3,5.044,5.044,0,0,1,46.3,30.26Z" transform="translate(-2.591)" fill="#666"/>
    </g>
</svg>