<svg xmlns="http://www.w3.org/2000/svg" width="15.75" height="7.681" viewBox="0 0 15.75 7.681">
    <g id="Gruppe_884" data-name="Gruppe 884" transform="translate(24.647 37.636) rotate(180)">
        <path id="Pfad_193" data-name="Pfad 193" d="M16.706,29.958a.768.768,0,0,0-.437.186L9.18,36.275a.766.766,0,0,0,.967,1.19l.039-.034,6.586-5.694,6.586,5.694A.766.766,0,0,0,24.4,36.309l-.039-.034-7.089-6.131A.767.767,0,0,0,16.706,29.958Z" fill="#181919"/>
    </g>
</svg>