<svg xmlns="http://www.w3.org/2000/svg" width="64.001" height="62.912" viewBox="0 0 64.001 62.912">
    <g id="Gruppe_842" data-name="Gruppe 842" transform="translate(-2198.441 -2158.876)">
        <path id="Pfad_194" data-name="Pfad 194" d="M2482.056,2226.127a1.23,1.23,0,0,1-1.23-1.23,7.381,7.381,0,0,1,7.226-7.512,1.23,1.23,0,1,1,0,2.461,4.92,4.92,0,0,0-4.765,5.052,1.23,1.23,0,0,1-1.23,1.23Z" transform="translate(-256.345 -53.114)" fill="#d13838"/>
        <path id="Pfad_195" data-name="Pfad 195" d="M2424.37,2627.707a1.234,1.234,0,0,1-1.122.722,1.257,1.257,0,0,1-.508-.111l-17.27-7.851-5.958,5.958a1.23,1.23,0,0,1-1.741-1.738l5.107-5.107-6.231-1.868a1.231,1.231,0,1,1,.708-2.357s8.31,2.5,8.348,2.514c.016.005,18.057,8.208,18.057,8.208a1.23,1.23,0,0,1,.61,1.63Z" transform="translate(-179.133 -414.338)" fill="#d13838"/>
        <path id="Pfad_196" data-name="Pfad 196" d="M2255.1,2219.355H2205.78a4.775,4.775,0,0,1-4.841-4.833c.1-2.365,2.632-4.089,4.841-4.089h6.624a1.29,1.29,0,0,0,1.216-1.1l3-19.03h9.966l-.138,2.628-9.171,2.846a1.23,1.23,0,0,0,.722,2.352l8.308-2.581c-.117,2.284,1.807,3.779,4.093,3.779a4.279,4.279,0,0,0,3.234-1.384l3.276,3.739,4.51.9a1.231,1.231,0,0,0,.484-2.414l-3.693-.738-3.8-4.336-.257-4.793h10.116l3,19.03a1.291,1.291,0,0,0,1.217,1.1h6.624c2.208,0,4.739,1.724,4.841,4.089a4.776,4.776,0,0,1-4.841,4.833Zm-44.01-35.534a2.011,2.011,0,0,1,2.252-1.5h2.017l-4.009,25.412h-5.572a8.643,8.643,0,0,0-3.106.6l8.419-24.512Zm20.89,12.011c.006.5-.646,1.03-1.643,1.03-1.037,0-1.6-.632-1.59-.976l.662-12.428c.271.019.538.027.806.027q.556,0,1.1-.048l.662,12.4Zm-9.437-18.524a9.578,9.578,0,0,1-1.925-7.227,10.154,10.154,0,0,1,10.024-8.746,9.605,9.605,0,0,1,9.6,10.943,10.151,10.151,0,0,1-10.024,8.746,9.639,9.639,0,0,1-7.672-3.717Zm24.993,5.01a2.011,2.011,0,0,1,2.252,1.5l8.419,24.512a8.644,8.644,0,0,0-3.106-.6h-5.572l-4.009-25.412Zm14.885,32.177a11.565,11.565,0,0,0-.514-2.9l-10.156-29.433a4.523,4.523,0,0,0-4.215-2.279h-3.455a1.321,1.321,0,0,0-1.216,1.522l1.014,6.434h-9.863l-.259-4.869a12.623,12.623,0,0,0,8.922-10.36,12.068,12.068,0,0,0-12.036-13.736,12.624,12.624,0,0,0-12.463,10.874,12.045,12.045,0,0,0,8.786,13.3l-.254,4.788H2217l1.013-6.434a1.321,1.321,0,0,0-1.216-1.522h-3.455a4.522,4.522,0,0,0-4.215,2.279l-10.157,29.433a11.575,11.575,0,0,0-.513,2.9c-.309,4.011,3.285,7.294,7.321,7.294H2255.1c4.036,0,7.63-3.283,7.321-7.294Z" transform="translate(0)" fill="#d13838"/>
    </g>
</svg>